module github.com/prymitive/karma

go 1.17

require (
	github.com/Masterminds/semver/v3 v3.1.1
	github.com/beme/abide v0.0.0-20190723115211-635a09831760
	github.com/cnf/structhash v0.0.0-20201127153200-e1b16c1ebc08
	github.com/fvbommel/sortorder v1.0.2
	github.com/getsentry/sentry-go v0.11.0
	github.com/go-chi/chi/v5 v5.0.7
	github.com/go-chi/cors v1.2.0
	github.com/go-openapi/errors v0.20.1
	github.com/go-openapi/runtime v0.21.0
	github.com/go-openapi/strfmt v0.21.1
	github.com/go-openapi/swag v0.19.15
	github.com/go-openapi/validate v0.20.3
	github.com/google/go-cmp v0.5.6
	github.com/hashicorp/golang-lru v0.5.4
	github.com/jarcoal/httpmock v1.0.8
	github.com/knadh/koanf v1.3.3
	github.com/mitchellh/mapstructure v1.4.3
	github.com/pmezard/go-difflib v1.0.0
	github.com/prometheus/client_golang v1.11.0
	github.com/prometheus/common v0.32.1
	github.com/prymitive/randomcolor v0.0.0-20210705210145-26c3401033a6
	github.com/rogpeppe/go-internal v1.8.1
	github.com/rs/zerolog v1.26.1
	github.com/spf13/pflag v1.0.5
	go.uber.org/automaxprocs v1.4.0
	gopkg.in/go-playground/colors.v1 v1.2.0
	gopkg.in/yaml.v3 v3.0.0-20210107192922-496545a6307b
)

require (
	github.com/PuerkitoBio/purell v1.1.1 // indirect
	github.com/PuerkitoBio/urlesc v0.0.0-20170810143723-de5bf2ad4578 // indirect
	github.com/asaskevich/govalidator v0.0.0-20210307081110-f21760c49a8d // indirect
	github.com/beorn7/perks v1.0.1 // indirect
	github.com/cespare/xxhash/v2 v2.1.2 // indirect
	github.com/fsnotify/fsnotify v1.5.1 // indirect
	github.com/go-openapi/analysis v0.21.1 // indirect
	github.com/go-openapi/jsonpointer v0.19.5 // indirect
	github.com/go-openapi/jsonreference v0.19.6 // indirect
	github.com/go-openapi/loads v0.21.0 // indirect
	github.com/go-openapi/spec v0.20.4 // indirect
	github.com/go-stack/stack v1.8.1 // indirect
	github.com/golang/protobuf v1.5.2 // indirect
	github.com/josharian/intern v1.0.0 // indirect
	github.com/json-iterator/go v1.1.12 // indirect
	github.com/mailru/easyjson v0.7.7 // indirect
	github.com/matttproud/golang_protobuf_extensions v1.0.1 // indirect
	github.com/mitchellh/copystructure v1.2.0 // indirect
	github.com/mitchellh/reflectwalk v1.0.2 // indirect
	github.com/modern-go/concurrent v0.0.0-20180306012644-bacd9c7ef1dd // indirect
	github.com/modern-go/reflect2 v1.0.2 // indirect
	github.com/oklog/ulid v1.3.1 // indirect
	github.com/opentracing/opentracing-go v1.2.0 // indirect
	github.com/pkg/diff v0.0.0-20210226163009-20ebb0f2a09e // indirect
	github.com/prometheus/client_model v0.2.0 // indirect
	github.com/prometheus/procfs v0.7.3 // indirect
	github.com/sergi/go-diff v1.0.0 // indirect
	go.mongodb.org/mongo-driver v1.8.1 // indirect
	golang.org/x/net v0.0.0-20211209124913-491a49abca63 // indirect
	golang.org/x/sys v0.0.0-20211210111614-af8b64212486 // indirect
	golang.org/x/text v0.3.7 // indirect
	google.golang.org/protobuf v1.27.1 // indirect
	gopkg.in/errgo.v2 v2.1.0 // indirect
	gopkg.in/yaml.v2 v2.4.0 // indirect
)
