module _

go 1.17

require golang.org/x/tools v0.1.8

require (
	golang.org/x/mod v0.5.1 // indirect
	golang.org/x/sys v0.0.0-20211019181941-9d821ace8654 // indirect
	golang.org/x/xerrors v0.0.0-20200804184101-5ec99f83aff1 // indirect
)
